digraph "GUIGrid"
{
 // LATEX_PDF_SIZE
  edge [fontname="Helvetica",fontsize="10",labelfontname="Helvetica",labelfontsize="10"];
  node [fontname="Helvetica",fontsize="10",shape=record];
  Node1 [label="GUIGrid",height=0.2,width=0.4,color="black", fillcolor="grey75", style="filled", fontcolor="black",tooltip=" "];
  Node2 -> Node1 [dir="back",color="midnightblue",fontsize="10",style="solid",fontname="Helvetica"];
  Node2 [label="Component",height=0.2,width=0.4,color="grey75", fillcolor="white", style="filled",tooltip=" "];
  Node3 -> Node1 [dir="back",color="firebrick4",fontsize="10",style="solid",fontname="Helvetica"];
  Node3 [label="Button::Listener",height=0.2,width=0.4,color="grey75", fillcolor="white", style="filled",tooltip=" "];
  Node4 -> Node1 [dir="back",color="darkorchid3",fontsize="10",style="dashed",label=" view" ,fontname="Helvetica"];
  Node4 [label="GUIGridView",height=0.2,width=0.4,color="black", fillcolor="white", style="filled",URL="$struct_g_u_i_grid_view.html",tooltip=" "];
  Node5 -> Node1 [dir="back",color="darkorchid3",fontsize="10",style="dashed",label=" model" ,fontname="Helvetica"];
  Node5 [label="GUIGridModel",height=0.2,width=0.4,color="black", fillcolor="white", style="filled",URL="$struct_g_u_i_grid_model.html",tooltip=" "];
}
